# Blender MTL File: 'lock.blend'
# Material Count: 1
newmtl lockMat
Ns 96.078431
Ka 0.000000 0.000000 0.000000
Kd 0.640000 0.640000 0.640000
Ks 0.500000 0.500000 0.500000
Ni 1.000000
d 1.000000
illum 2
map_Kd C:\Users\CharlesVsWorld\Documents\GitHub\EOS3\tex\lock.tga


